Var1,Var2,Var3
172.085669110249,25.2284983287113,25.0301355599442
172.343392971292,25.2639223012401,25.2004050608574
172.601116832335,25.3205984113226,25.2772485531206
172.858840693378,25.5075531215344,25.4095288420986
173.116564554421,25.6681133367093,25.4249100029285
173.374288415465,26.2256529284327,25.49818488524
173.632012276508,26.2305209909462,25.3054435820165
173.889736137551,25.5401100820855,24.9337540085683
174.147459998594,25.287187933241,25.0802043317604
174.405183859638,25.8041280459203,25.46933457406
174.662907720681,25.7310527471693,25.339288519232
174.920631581724,26.0036734956795,25.3830713302505
175.178355442767,25.8878252826128,25.5806751640877
175.43607930381,26.2553266998605,25.4658186547794
175.693803164854,26.4005257026203,25.4826328955761
175.951527025897,26.4559793874398,25.593083025805
176.20925088694,26.3688272881673,25.6214648087383
176.466974747983,26.1471257263535,25.4395665994733
176.724698609026,25.8953244527421,25.4387647277158
176.98242247007,25.4627212764025,25.5446807520936
177.240146331113,25.4495024897468,25.5994917667913
177.497870192156,25.4153512201471,25.4716734834171
177.755594053199,25.8180052872006,25.5102863241623
178.013317914242,25.7503967648946,25.4623262959685
178.271041775286,24.9673920372464,25.1845866447322
178.528765636329,25.1913867250821,25.1810797010724
178.786489497372,25.1599315802218,25.273992722788
179.044213358415,25.4431540434949,25.4016733568966
179.301937219458,25.8155305587972,25.48741461649
179.559661080502,25.4435012264582,25.2757883713301
179.817384941545,25.7967895291672,25.6083551270649
180.075108802588,25.8997628994228,25.5598028438376
180.332832663631,25.8246797262189,25.405852437108
180.590556524674,25.5648714013756,25.4396906255946
180.848280385718,25.4872234280015,25.4158183061579
181.106004246761,25.724747913331,25.2920957035584
181.363728107804,25.7172379102099,25.2574860404468
181.621451968847,25.5008003932275,25.2022187062633
181.87917582989,25.2337599576798,25.1089807047884
182.136899690934,25.5063071759366,25.1315196333212
182.394623551977,25.7788543941933,25.1540585618539
182.65234741302,25.7007939233852,25.2110368986989
182.910071274063,25.3666628260138,25.2931684798681
183.167795135107,25.0657066740145,25.0618043505662
183.42551899615,24.9737403255345,25.4116098710751
183.683242857193,24.6378051678535,25.3302645061311
183.940966718236,24.81022970823,24.7236813165411
184.198690579279,25.0666198676585,25.0453811220261
184.456414440323,24.5675748345906,24.9335684360775
184.714138301366,24.9963792449761,24.7915131695506
184.971862162409,24.3506845465201,24.5513588454661
185.229586023452,24.4357521996297,24.9044454397439
185.487309884495,25.3471331078363,26.3835517554755
185.745033745539,24.5391233885052,25.7166627736284
186.002757606582,24.8398677880348,25.4676239154798
186.260481467625,24.6418730315782,26.0198420584453
186.518205328668,25.4575568565726,25.6778766801346
186.775929189711,24.9859296236641,24.9360594461989
187.033653050755,25.7524924453745,25.2995025955101
187.291376911798,25.3793577355169,25.6283772755355
187.549100772841,25.1015719990062,25.6435218802446
187.806824633884,25.7910682241118,25.7268325477202
188.064548494927,25.7758292526181,25.8129363840143
188.322272355971,25.5640181631635,25.8227569590863
188.579996217014,25.6414630713424,25.6111991429314
188.837720078057,25.7733104408369,25.554749416699
189.0954439391,26.0183218767107,25.820944323806
189.353167800143,25.9815657063183,25.8280044582704
189.610891661187,26.0194990001801,25.7337444918224
189.86861552223,26.0544670779254,25.5657755440322
190.126339383273,24.0534891293398,24.7972355531253
190.384063244316,24.681166961104,24.8824556473537
190.641787105359,24.3238667221485,24.7925950709723
190.899510966403,24.4753949360288,25.1082470732634
191.157234827446,23.5402850870451,24.741881309948
191.414958688489,23.5510814972121,24.5857343080773
191.672682549532,24.3413135154712,24.9527291942967
191.930406410576,23.9387428669943,25.0218857706792
192.188130271619,24.3251805457221,25.596676550583
192.445854132662,24.5073145958132,25.2354634006411
192.703577993705,24.5747785797178,25.9747231571413
192.961301854748,24.7499890076324,26.2429882559196
193.219025715792,25.1105767006567,26.3152418230066
193.476749576835,25.471164393681,26.3874953900935
193.734473437878,25.8317520867053,26.4597489571805
193.992197298921,26.1923397797296,26.5320025242675
194.249921159964,26.5529274727538,26.6042560913544
194.507645021008,26.9135151657781,26.6765096584414
194.765368882051,27.2741028588024,26.7487632255284
195.023092743094,27.6346905518267,26.8210167926154
195.280816604137,27.995278244851,26.8932703597023
195.53854046518,28.3278139541468,26.9754746877815
195.796264326224,28.4850511099778,27.119861926869
196.053988187267,28.6422882658089,27.2642491659566
196.31171204831,28.7995254216399,27.4086364050442
196.569435909353,28.8740209249865,27.4636411662315
196.827159770396,28.7135136692765,27.2647819026243
197.08488363144,28.5530064135666,27.0659226390171
197.342607492483,28.4050981450284,26.8755450143819
197.600331353526,28.281759923939,26.7017079472652
197.858055214569,28.1688601855981,26.6688108179034
198.115779075612,28.0712639966619,26.8425415436119
198.373502936656,27.9736678077256,27.0162722693203
198.631226797699,27.9972733691026,27.072336852662
198.888950658742,28.144683483937,27.0082084175436
199.146674519785,28.2920935987715,26.9440799824252
199.404398380828,28.5295422249389,27.072301387392
199.662122241872,28.8311613708547,27.3376106787426
199.919846102915,28.8407107936156,27.3532198038379
200.177569963958,28.6932765216587,27.234618322483
200.435293825001,28.3376770562118,27.0201369083251
200.693017686045,27.8955279098032,26.765791108313
200.950741547088,27.9694629079513,27.0543827435661
201.208465408131,28.1795145178726,27.4386944349186
201.466189269174,28.2458698387856,27.3973851484633
201.723913130217,28.0585300579971,27.3218824638458
201.981636991261,28.1074474344644,27.3383710893297
202.239360852304,28.3809534659238,27.4332846017559
202.497084713347,28.6638367396312,27.5134144980768
202.75480857439,28.9458667974982,27.5911988705686
203.012532435433,29.027245627708,27.4729324719476
203.270256296477,29.1086244579179,27.3546660733267
203.52798015752,29.1742030297964,27.2521688752039
203.785704018563,29.0915702489138,27.2975916976759
204.043427879606,29.0089374680311,27.343014520148
204.301151740649,28.9263046871485,27.3884373426201
204.558875601693,28.7696367766574,27.3811935542968
204.816599462736,28.3486203159888,27.1858992785887
205.074323323779,27.9276038553203,26.9906050028806
205.332047184822,28.421500818562,27.7151326499786
205.589771045865,28.4800695105316,27.791617875189
205.847494906909,28.6367706721574,27.6540909615461
206.105218767952,28.5792676478358,27.4521148102387
206.362942628995,28.7171916484657,27.4400313695588
206.620666490038,28.8374684881137,27.4340908418753
206.878390351081,28.8318847267666,27.3747853246077
207.136114212125,28.6933728591794,27.2591181902109
207.393838073168,28.7041977910131,27.1443051571848
207.651561934211,28.8410827332907,27.0302130986814
207.909285795254,28.7297327532306,26.9338965641493
208.167009656298,28.4588726072931,26.8490021806608
208.424733517341,28.2373556835047,26.970498338162
208.682457378384,28.0407277163939,27.196098869266
208.940181239427,28.0674540933685,27.1585854430844
209.19790510047,28.1807692283586,27.0190694752856
209.455628961514,28.0875948727519,27.0563238824173
209.713352822557,27.9350022533177,27.1444447464526
209.9710766836,28.1299033665551,27.404601249336
210.228800544643,28.3894803063663,27.6967771704032
210.486524405686,28.4848710372743,27.8354090704388
210.74424826673,28.5618159000043,27.9567907227808
211.001972127773,28.6773419775235,27.8066552071311
211.259695988816,28.7942450681296,27.6468288951787
211.517419849859,28.9000608565924,27.4944990195236
211.775143710902,28.814358199604,27.471660142449
212.032867571946,28.7286555426156,27.4488212653744
212.290591432989,28.6429528856272,27.4259823882998
212.548315294032,28.6114657949735,27.4342520464857
212.806039155075,28.8317583949494,27.5869912346125
213.063763016118,29.0520509949252,27.7397304227393
213.321486877162,29.2146135530168,27.8270158379764
213.579210738205,29.2091682364294,27.7238155214523
213.836934599248,29.1347474987937,27.6025642052785
214.094658460291,28.9152776284245,27.4433532535658
214.352382321334,28.8133289081719,27.3958756151361
214.610106182378,28.904602478992,27.5321042011629
214.867830043421,28.9467987200204,27.6117386842766
215.125553904464,28.9277197817528,27.6207129701501
215.383277765507,28.5297740841401,27.7115616968584
215.64100162655,28.573796203515,27.7211953752156
215.898725487594,28.89626477676,27.6963905628987
216.156449348637,28.6576177819449,27.8353166176087
216.41417320968,28.5916097307392,27.5713471045226
216.671897070723,28.5596813641034,27.4784001083669
216.929620931767,28.6204643909465,27.5395199533258
217.18734479281,28.8240822838961,27.6920673036847
217.445068653853,28.8510909050629,27.6503799287237
217.702792514896,28.8144021333958,27.5386382158688
217.960516375939,28.7920161564414,27.6095112843681
218.218240236983,28.7731730481372,27.7256188819874
218.475964098026,28.4040702303739,27.5729309298362
218.733687959069,27.976707230052,27.3755330742115
218.991411820112,27.5459726197266,27.4811792141764
219.249135681155,27.4231361312229,27.6178212916313
219.506859542199,27.9877406566918,27.7622244119282
219.764583403242,28.4638044365742,27.4742469754283
220.022307264285,28.5381387346442,27.6302983204671
220.280031125328,28.117492092928,27.6784179538534
220.537754986371,27.4438136568599,27.3261414378396
220.795478847415,27.9818980659969,26.7982494983381
221.053202708458,28.3251022294339,26.8250817640505
221.310926569501,28.5477801481717,26.8881353852098
221.568650430544,28.4832259469909,26.7103290533464
221.826374291587,28.545170883112,26.693355595716
222.084098152631,28.9148906282957,27.0676915826705
222.341822013674,28.8049041395022,27.1796364269217
222.599545874717,27.7929983328863,26.7982467600335
222.85726973576,27.2037474792332,26.6090552178846
223.114993596803,27.2133813303481,26.6922005225761
223.372717457847,27.2336939883908,26.7431810531528
223.63044131889,27.2660652263847,26.7578409064382
223.888165179933,27.310483737902,27.037119868963
224.145889040976,27.3653229605467,27.545290396936
224.403612902019,27.8876181467382,27.7687717596908
224.661336763063,28.0072417188406,27.0824348297533
224.919060624106,27.8105680169942,26.557473934758
225.176784485149,27.4508774941767,27.3080956357546
225.434508346192,27.4638229207251,27.3276194754893
225.692232207236,26.9041471990424,27.2756225895244
225.949956068279,26.6419044555408,26.8487941555864
226.207679929322,27.0175748453527,27.3496974327489
226.465403790365,27.9280682760546,27.4290004158372
226.723127651408,28.9509124427559,27.4197374626898
226.980851512452,29.0862113863067,27.6223148381442
227.238575373495,29.1150934979249,27.8502919071097
227.496299234538,28.4821104432873,27.6202996704479
227.754023095581,27.8197901777378,27.3633589338049
228.011746956624,27.5630982249325,26.9617317054489
228.269470817668,27.3440257025598,26.5871783545201
228.527194678711,27.614907985987,26.565234710986
228.784918539754,27.8402782491925,26.5620094631894
229.042642400797,27.7534230767251,26.6871977473739
229.30036626184,27.6521133714635,26.7626024587797
229.558090122884,27.4863308873579,26.6159532772284
229.815813983927,27.3575839191037,26.5128607887283
230.07353784497,27.3401356710682,26.5406643896197
230.331261706013,27.3226874230327,26.5684679905112
230.588985567056,27.2636599842342,26.6225343823999
230.8467094281,27.1235089308533,26.7278411302364
231.104433289143,26.9833578774725,26.833147878073
231.362157150186,27.0644736829708,26.9429386318716
231.619881011229,27.4412459438503,27.0587209079225
231.877604872272,27.711323731828,27.1376241932067
232.135328733316,27.8723705899845,27.178840890378
232.393052594359,27.9989062999544,27.1587252882735
232.650776455402,28.0972626162151,27.0885300133911
232.908500316445,28.1232106890332,27.0442755229344
233.166224177488,28.1021633244093,27.0168574927164
233.423948038532,27.8987261611723,26.9401714393024
233.681671899575,28.1918246044439,27.0172968965219
233.939395760618,27.5345893576099,26.9993598226399
234.197119621661,26.884555379929,27.0167606145778
234.454843482705,26.6331846880121,26.7708157205026
234.712567343748,27.7506696129618,27.1473642173503
234.970291204791,28.0253990169754,27.1610692995704
235.228015065834,27.5502249677465,27.3690539587923
235.485738926877,27.5368888500353,27.2699369037846
235.743462787921,27.688571314873,26.8798840152302
236.001186648964,27.8160525792775,26.7599850165867
236.258910510007,27.6680803900003,27.1966021515408
236.51663437105,27.8038244760081,27.4409719722722
236.774358232093,27.5131483618018,27.0400135889468
237.032082093137,27.5927557321327,26.5274664640962
237.28980595418,27.0824014216622,26.9183348332259
237.547529815223,27.0495653629806,27.0352518733697
237.805253676266,26.7507938246862,25.750371314235
238.062977537309,26.604558186646,25.9091522727471
238.320701398353,26.6994849561288,26.4743523994932
238.578425259396,26.8969638806565,26.5644643624733
238.836149120439,27.2165164147796,26.1350702679492
239.093872981482,25.7070832321192,26.0929169437051
239.351596842525,26.1879208614667,27.1013198635376
239.609320703569,26.0930387512158,26.5537708672506
239.867044564612,30.1424848880287,26.2181174598155
240.124768425655,28.7134091952466,26.749657156695
240.382492286698,27.9508090619969,27.1612724604559
240.640216147741,26.8401468303251,26.2373598519108
240.897940008785,27.0053009733524,26.2405468951547
241.155663869828,26.9437777952084,27.2070425730558
241.413387730871,27.5665805881783,27.3191554411926
241.671111591914,27.4200555536649,26.9814672336638
241.928835452957,27.370769597349,26.7366635526569
242.186559314001,27.538004666395,27.505305059596
242.444283175044,27.9368552239877,27.349688086868
242.702007036087,27.9749478315385,27.0375225760607
242.95973089713,27.6434268085177,26.7416281067335
243.217454758174,27.6097619915787,26.8714036319957
243.475178619217,27.3550273862479,27.5512448208774
243.73290248026,27.4215939522894,27.6324666005572
243.990626341303,27.5367420011557,27.2822693977764
244.248350202346,27.2953577874232,26.7601217737219
244.50607406339,27.536172886202,26.6167574145911
244.763797924433,27.6613154743106,26.7758555904468
245.021521785476,27.7942594029872,26.687440727745
245.279245646519,27.6719641688093,26.6911830038586
245.536969507562,27.6568602874332,26.6553569830114
245.794693368606,27.7853835203089,26.7282289921386
246.052417229649,27.7171521129297,26.788504223795
246.310141090692,27.5635867362122,26.7872567816943
246.567864951735,27.4100213594947,26.7860093395936
246.825588812778,27.2564559827772,26.7847618974929
247.083312673822,27.1028906060597,26.7835144553922
247.341036534865,26.9493252293422,26.7822670132915
247.598760395908,26.7957598526248,26.7810195711908
247.856484256951,26.6421944759073,26.7797721290901
248.114208117994,26.4653237542633,26.7842502207859
248.371931979038,25.819093124526,26.8573654663729
248.629655840081,25.7092632480615,26.678795645388
248.887379701124,25.5616818232553,26.1209548646899
249.145103562167,25.3684062851996,25.7878339086266
249.40282742321,25.7974545399961,26.2319010338039
249.660551284254,25.4701924733848,26.3188360249575
249.918275145297,25.3132330923451,25.9677627197703
250.17599900634,24.292645088642,25.1729422909694
250.433722867383,24.8655188460991,26.1054185683032
250.691446728427,24.9134939707942,26.5423394505038
250.94917058947,23.9327161009604,25.5703455771159
251.206894450513,23.8051086392846,25.3465552047257
251.464618311556,23.6896129268711,25.1224577413259
251.722342172599,23.5741172144576,24.898360277926
251.980066033643,23.4586215020442,24.6742628145262
252.237789894686,23.3431257896307,24.4501653511264
252.495513755729,23.2276300772172,24.2260678877265
252.753237616772,23.1121343648038,24.0019704243267
253.010961477815,22.9966386523903,23.7778729609269
253.268685338859,22.8811429399769,23.553775497527
253.526409199902,22.7656472275634,23.3296780341272
253.784133060945,22.6501515151499,23.1055805707274
254.041856921988,22.5346558027365,22.8814831073275
254.299580783031,24.2165295736272,24.8729220431853
254.557304644075,22.2433558704129,23.4908155239761
254.815028505118,21.8440181458938,23.3880024916861
255.072752366161,20.7416500535692,23.8245229001364
255.330476227204,21.2247245332156,23.9198968276353
255.588200088247,21.7773986678357,22.714419802175
255.845923949291,20.9541315010744,22.6945436879056
256.103647810334,22.8072443546127,23.0570769860854
256.361371671377,22.9835276900978,23.7573220626388
256.61909553242,21.0676463359335,23.5486598800441
256.876819393463,25.1848490514391,25.8119616606585
257.134543254507,28.9280303929347,27.9569865597081
257.39226711555,29.4790783956055,28.1567489741795
257.649990976593,29.7587474487322,28.1182368538007
257.907714837636,29.8670742107721,28.0188694868356
258.165438698679,29.2203877976369,27.42888802992
258.423162559723,28.224626001512,27.5645710594402
258.680886420766,28.3811077477576,27.3442499046028
258.938610281809,28.7843373383709,28.1675714181472
259.196334142852,27.4415618680218,27.1680600712754
259.454058003896,27.3020069713549,27.641432747588
259.711781864939,28.1810353569372,27.7526375286462
259.969505725982,28.3689385905673,27.8591661527823
260.227229587025,28.7266312144904,28.1411472534044
260.484953448068,29.1972483256029,27.8462040260998
260.742677309112,30.0383522314812,27.8173686403617
261.000401170155,29.6836376307447,27.9358735474465
261.258125031198,29.6526021936097,28.1270247205721
261.515848892241,29.6668495853687,28.0331703754762
261.773572753284,29.5692221345311,27.959353819939
262.031296614328,28.8291513769345,27.3700087340585
262.289020475371,28.6183979639832,27.3231723059215
262.546744336414,28.0286764608759,27.7662721754468
262.804468197457,28.1324796168496,28.0818542448575
263.0621920585,28.3231224518771,27.4149933150291
263.319915919544,29.0557905181097,27.5741610783625
263.577639780587,29.476596923787,28.1016621331942
263.83536364163,30.3471103311296,28.0069700266484
264.093087502673,30.1514831797073,26.9612846064172
264.350811363716,29.7102657696051,27.5979744003954
264.60853522476,29.5730474891678,27.9666610427194
264.866259085803,28.8271190830261,28.2464121476585
265.123982946846,27.7013761272534,26.5104084499376
265.381706807889,26.0799474462682,26.2742204113257
265.639430668932,25.9420215538213,26.530829564735
265.897154529976,26.1083336312029,27.0447079478541
266.154878391019,26.1045234715715,26.5749304062179
266.412602252062,26.5787847877576,26.9867448131865
266.670326113105,26.5140021049678,27.227312973203
266.928049974149,25.3908605855229,27.1755422833267
267.185773835192,26.0117632714959,26.6229696234594
267.443497696235,25.8533863764128,27.1826302531358
267.701221557278,26.0100212260193,26.7644202265745
267.958945418321,26.1067867668424,26.7628238409639
268.216669279365,25.5496661548127,26.3559790924497
268.474393140408,26.1841776290146,26.7643654505594
268.732117001451,26.0546526562505,26.7894267003757
268.989840862494,26.5882054646802,26.6483947537555
269.247564723537,26.3710867360434,26.4217946456055
269.505288584581,25.7677092682781,26.9097375498208
269.763012445624,25.2001645698092,26.4680920695114
270.020736306667,25.863241420224,26.363762376562
270.27846016771,26.3243173695839,26.2313825293931
270.536184028753,26.107971611464,26.4804424013234
270.793907889797,26.7135501790266,26.5687628931457
271.05163175084,26.7082003534637,26.7870035705932
271.309355611883,26.6774065583026,26.8817576678983
271.567079472926,26.7378091017045,27.0688313013747
271.824803333969,26.4556794044446,27.3047026616936
272.082527195013,25.4553336338915,26.4102817830323
272.340251056056,25.6956166699115,26.3327690278064
272.597974917099,26.184115234129,26.5696725956216
272.855698778142,26.1437790293388,26.8101116239862
273.113422639185,27.3154836536298,26.9853751389369
273.371146500229,26.4443881225831,27.1446802187992
273.628870361272,26.5007634663713,27.502194644752
273.886594222315,26.7326884683505,27.4544897209176
274.144318083358,28.4126326892335,27.02118645776
274.402041944401,28.0059551842113,26.6478356289729
274.659765805445,26.6282961691312,26.5332755645381
274.917489666488,26.4563921735285,26.5754421230327
275.175213527531,26.5147523079924,26.3338932512909
275.432937388574,26.7078527501122,26.4973181569016
275.690661249618,26.2815739051227,26.5397992006882
275.948385110661,26.3819647393184,26.3773965011151
276.206108971704,25.6783474128819,25.3573273324859
276.463832832747,26.0004415482003,25.492004164716
276.72155669379,25.6694553667292,25.3686855579055
276.979280554834,26.3055419926711,25.590872091978
277.237004415877,28.8238117087403,27.5351820953798
277.49472827692,28.8464079030562,27.7809674025856
277.752452137963,28.6840591897558,27.6929645508275
