,date,dC13,dO18
0,1743-04-02,27.692964550827497,28.684059189755803
1,1743-06-02,27.5504056372726,28.5558511274267
2,1743-08-01,27.967942403078,29.082036100960604
3,1743-10-01,27.5681250174506,28.825680965580396
4,1743-12-01,27.247290718000002,28.8074760926949
5,1744-01-19,25.187022627560147,25.695548401419302
6,1744-02-24,25.291757893485197,25.631653670093133
7,1744-04-01,25.352829312940504,25.422165709039803
8,1744-05-08,25.4037263159281,26.215941440556804
9,1744-06-13,25.2765315299506,25.429579514608
10,1744-07-20,25.520648025050903,26.0763291075579
11,1744-08-25,25.3815154117265,25.7967721201063
12,1744-10-01,25.46594627523365,25.64205104081445
13,1744-11-07,25.226586983908547,25.7220359281275
14,1744-12-13,25.4830281558222,26.8102367669694
15,1745-01-27,26.544328385475833,26.302028707401565
16,1745-03-20,26.519468695076565,26.245484039554366
17,1745-05-11,26.54962778077375,26.2990211905366
18,1745-07-02,26.552183692665434,26.3639926914508
19,1745-08-23,26.4389033108637,27.0739574842706
20,1745-10-14,26.274738988066726,26.610336322984324
21,1745-12-05,26.4755620600316,26.2858377243177
22,1746-01-21,26.6390654661366,26.7474833745055
23,1746-03-02,26.3955027147586,25.633128636871902
24,1746-04-12,26.779698150929498,26.49012608581895
25,1746-05-22,26.361687143811327,26.72450645056047
26,1746-07-02,26.137988868544696,26.424894792876046
27,1746-08-12,26.707383237585002,28.190615306983
28,1746-09-21,26.740353640314176,27.89399477162123
29,1746-11-01,27.046557764548503,28.4979895631732
30,1746-12-11,26.931806128770155,28.1119297913551
31,1747-01-31,27.40937583601425,26.71474607226
32,1747-04-02,27.639171815939854,26.80613901039115
33,1747-06-02,27.4539334115164,26.3931703526678
34,1747-08-01,27.25017487373365,26.20083470372105
35,1747-10-01,26.897350412659648,27.015393543750648
36,1747-12-01,27.001875073384902,27.371734520299803
37,1748-01-31,26.856416237424398,26.2493261280714
38,1748-04-01,26.7362337569253,25.97538124022365
39,1748-06-01,26.556832609457302,26.2002062698349
40,1748-08-01,26.3684635279514,26.0165210358611
41,1748-10-01,26.29277084958735,25.336020934758903
42,1748-12-01,26.39743213906305,25.439658795693
43,1749-01-31,27.270719083821398,26.5049514678238
44,1749-04-02,27.331637180336898,26.4166276214137
45,1749-06-02,27.0611901561549,26.749569472797198
46,1749-08-01,27.1356051096022,26.6350385429152
47,1749-10-01,26.7512997514294,26.69918043546
48,1749-12-01,26.853668063299498,26.7029581766465
49,1750-01-31,26.526365557884198,26.728695680022696
50,1750-04-02,26.5831359484447,26.7084157260708
51,1750-06-02,26.681728795152196,26.744209993064604
52,1750-08-01,25.9989315960082,24.585982719569696
53,1750-10-01,26.2725641783275,26.6322855340687
54,1750-12-01,25.972337109714196,25.510426252745198
55,1751-01-31,26.9692358799653,26.4089911548476
56,1751-04-02,26.433703206086804,25.1172139846285
57,1751-06-02,26.8837093530783,25.8383013469093
58,1751-08-01,26.937165158710652,25.69332178986075
59,1751-10-01,26.419831091026,26.360870683150896
60,1751-12-01,26.4708794278585,26.626466819159397
61,1752-01-31,26.7760944904657,26.560681278424802
62,1752-04-01,26.789983785311197,26.0720257779343
63,1752-06-01,26.7855181781843,25.9327623890521
64,1752-08-01,26.753847337792898,26.3091928938091
65,1752-10-01,26.315664835179895,25.4792970642734
66,1752-12-01,26.5066954479722,25.8127436263018
67,1753-01-31,26.846307955061732,26.202629054406998
68,1753-04-02,26.727835840153,26.2574711647621
69,1753-06-02,26.850882572859,25.4252061072102
70,1753-08-01,27.2391315231353,25.9263114650781
71,1753-10-01,26.51384199146477,25.4770740494691
72,1753-12-01,26.786661071451302,26.8137971045361
73,1754-01-31,27.198985944649703,25.305079013111502
74,1754-04-02,27.193181199499396,26.123281999573898
75,1754-06-02,27.26336995630965,26.926760854688396
76,1754-08-01,27.000080413607648,26.581910235849598
77,1754-10-01,26.7090478075577,26.5137012857784
78,1754-12-01,26.481330481861203,25.81896013619824
79,1755-01-31,27.09343758205535,26.26737333562275
80,1755-04-02,26.7245731294607,25.0635043866108
81,1755-06-02,26.43765185081365,26.364529632462148
82,1755-08-01,26.41430733044095,26.22237448385345
83,1755-10-01,25.817649658936553,25.615749788688703
84,1755-12-01,26.7081665875413,28.29674869532395
85,1756-01-31,28.250921417977803,28.77735648358385
86,1756-04-01,28.236876978291,28.932345600900103
87,1756-06-01,27.9242046109066,29.6737148164815
88,1756-08-01,27.964742382844864,29.378187767222432
89,1756-10-01,27.0643824259293,30.19338906675
90,1756-12-01,26.95591547043555,30.14930080177705
91,1757-01-31,28.052416812554338,30.486349695392832
92,1757-04-02,27.960352652866334,30.204284532568902
93,1757-06-02,28.11177898772995,29.474309713973355
94,1757-08-01,27.8412630947088,29.5354677155124
95,1757-10-01,27.39334694687315,28.731074078189103
96,1757-12-01,27.271700156389198,28.33740663704495
97,1758-01-31,28.299154828861397,28.2349847703452
98,1758-04-02,27.9808155829653,28.084817602530897
99,1758-06-02,27.7022500827116,27.9221362609721
100,1758-08-01,27.9811986270413,28.386339044824553
101,1758-10-01,27.14325370386375,28.681847882307096
102,1758-12-01,27.1214624714477,28.47256561692225
103,1759-02-06,27.9526733107366,29.665091892492935
104,1759-04-20,27.9630129342978,29.516711405586403
105,1759-07-02,28.03800087139045,29.6771869330803
106,1759-09-13,28.301219582199302,29.733857452409897
107,1759-11-25,27.5272213327187,29.3728167909061
108,1760-01-31,28.2561613547039,29.9272485097611
109,1760-04-01,27.811275263894895,30.0907919129622
110,1760-06-01,27.9119326915276,29.2245327096342
111,1760-08-01,27.803052447631195,29.1793358329205
112,1760-10-01,28.183710243648896,28.7494167080759
113,1760-12-01,27.8938136243635,28.594224661623603
114,1761-01-31,27.843597278498603,28.2677060804277
115,1761-04-02,27.814655991809502,28.4538499054572
116,1761-06-02,27.5486042313097,27.283508248770598
117,1761-08-01,27.666229733547503,27.3069484762134
118,1761-10-01,27.252983311770898,27.4911575440982
119,1761-12-01,27.0000742566633,27.3434571560687
120,1762-01-31,28.328393063355698,28.9828172397453
121,1762-04-02,27.3246164908103,28.164983615605802
122,1762-06-02,27.3711333228442,28.677039749095396
123,1762-08-01,27.5682571140729,28.2160050270345
124,1762-10-01,27.090173412433302,29.160860197918502
125,1762-12-01,27.7356513599599,29.274300099545805
126,1763-03-02,28.1312956730395,30.1023816515097
127,1763-07-02,28.1079603580093,29.4883282497187
128,1763-11-01,28.2552745304611,29.460398894247103
129,1764-01-31,26.090075271940798,25.5960664460045
130,1764-04-01,25.007319758527302,23.995109559629
131,1764-06-01,23.1839949104232,20.335780530009302
132,1764-08-01,23.996440374485,24.007475700083
133,1764-10-01,23.2995924393565,21.0234463677912
134,1764-12-01,23.0259611352732,23.0361138608165
135,1765-01-31,22.7858253761088,21.546132920435802
136,1765-04-02,22.573259731605802,20.167552334009
137,1765-06-02,22.7184008829352,21.822800517243902
138,1765-08-01,24.239393361437997,23.731899627302397
139,1765-10-01,23.6389569088978,19.0201135510246
140,1765-12-01,23.8355564183884,20.656447277437398
141,1766-02-15,23.65287606305813,22.067137237198136
142,1766-05-17,22.592073900339102,21.173559167579697
143,1766-08-17,25.7902374893562,24.980420642189202
144,1766-11-16,22.8074033167369,22.496476440686102
145,1770-01-19,25.568991998733065,23.919748473225997
146,1770-02-24,25.638848001988954,24.588986883577913
147,1770-04-02,26.4017058228618,24.6660553939555
148,1770-05-08,26.633633459062434,25.074121694976736
149,1770-06-14,26.576964507729397,24.6883398775203
150,1770-07-20,26.25440722392385,24.853002665805924
151,1770-08-26,25.46248083788193,24.919530505696468
152,1770-10-01,25.479432760130152,24.793798382091452
153,1770-11-07,25.0757636841475,24.133744947326104
154,1770-12-13,25.206797531197964,24.62362140738257
155,1771-02-15,26.196180473827,25.520232774611603
156,1771-05-17,26.3368332465304,25.462850071182398
157,1771-08-17,26.2198006307988,25.8360399163525
158,1771-11-16,25.75526271633965,25.3331457335453
159,1772-02-06,26.0813984397296,25.5360702765443
160,1772-04-19,26.583486564861495,25.861156617960198
161,1772-07-02,26.845841627751646,25.44304331341235
162,1772-09-13,26.8637347845235,26.026938875076198
163,1772-11-25,26.7785890081217,26.4965473014924
164,1775-02-15,26.789349707301998,27.8212346937499
165,1775-05-17,26.6059777321697,27.7136754077186
166,1775-08-17,26.741734681276803,27.557475237371303
167,1775-11-16,26.6124977973196,27.8501696345175
168,1776-03-02,26.819560800075802,27.6956928832117
169,1776-07-02,26.613360593922,27.533501033255895
170,1776-10-31,26.806127925928198,27.220705522910198
171,1777-01-23,27.4190572931425,27.6275342704162
172,1777-03-10,27.443972276095,27.5598472526351
173,1777-04-25,27.739042242841002,27.3434248385814
174,1777-06-09,27.634785810346,27.410057979445895
175,1777-07-25,27.516605262687897,27.332209420511397
176,1777-09-08,27.2216285843008,27.5201419923211
177,1777-10-24,26.769709960842,27.6357846569351
178,1777-12-09,26.6495006821361,27.395000918720697
179,1778-03-02,26.8518955342374,27.940768060734502
180,1778-07-02,27.314898657405,28.0260214832744
181,1778-11-01,27.5165870280287,27.5090886727135
182,1779-02-15,26.5696802719762,27.3411551880968
183,1779-05-17,27.0664074475521,27.4363305078299
184,1779-08-17,27.362354995826696,27.588842863660897
185,1779-11-16,27.187224843095102,26.8614680539425
186,1780-02-15,26.1596281295592,27.0175953151779
187,1780-05-17,26.2418594669807,26.8298749638023
188,1780-08-16,27.1809040546226,27.974743597901398
189,1780-11-16,26.752574151856898,28.7066241043571
190,1781-01-31,25.7856212875385,30.9558095524175
191,1781-04-02,27.222487555955702,28.2537306660785
192,1781-06-02,26.430302808678604,25.694100844616198
193,1781-08-01,27.164647814865305,25.834861012649398
194,1781-10-01,27.007770629573603,26.709467472526498
195,1781-12-01,26.041533691922805,25.6507837794274
196,1782-03-02,26.135185732807997,27.2184492105402
197,1782-07-02,26.692218965553103,26.80128888573
198,1782-11-01,26.290416530839,26.6135360445439
199,1783-02-15,25.234749822335402,26.588677628116496
200,1783-05-17,27.0110968087409,27.1471776552648
201,1783-08-17,27.0863097060333,26.843237118285998
202,1783-11-16,26.603776405721998,27.5302728558103
203,1784-01-27,26.445938017493702,27.6595115405802
204,1784-03-19,26.997141783857302,27.5237208912467
205,1784-05-10,27.44829029546,27.4124640660912
206,1784-07-02,27.4400505460885,27.853099387723
207,1784-08-23,27.3478843641388,27.6632830060422
208,1784-10-14,27.130602177895998,27.670173347324
209,1784-12-05,26.770980306542302,27.8463729824337
210,1785-03-02,26.734658580971303,27.746212880509
211,1785-07-02,27.2640403199037,27.5360954695548
212,1785-11-01,27.3925016115938,27.553379830023104
213,1786-01-27,27.1123227299119,28.1248203811562
214,1786-03-20,27.131379609871303,28.0476472186759
215,1786-05-11,27.1621703427455,27.475586995164598
216,1786-07-02,26.894857089169196,26.9435199294512
217,1786-08-23,26.518246154966302,26.0012887492345
218,1786-10-14,27.041905281830502,26.9844996464166
219,1786-12-05,26.8617694263777,26.268501070639
220,1787-03-02,27.1041323614232,28.4986921420587
221,1787-07-02,26.916702053562602,27.8363328501155
222,1787-11-01,27.0166287368028,28.101987720651998
223,1788-04-01,27.0609022415752,28.135974137280503
224,1788-10-01,27.1973677925527,27.9447611402074
225,1789-04-02,27.117239047442897,27.6316724277783
226,1789-10-01,26.893378513709198,26.903197895290603
227,1790-07-02,26.586850036434,27.3111517051264
228,1791-04-02,26.505918893662,27.3619403298948
229,1791-10-01,26.789459390302802,27.6824743238825
230,1792-04-01,26.5460827783331,27.851328124738302
231,1792-10-01,26.5887430771974,27.324710056501
232,1793-04-02,27.369540375833303,27.823740921894004
233,1793-10-01,27.8619524433106,29.1165707557457
234,1794-04-02,27.418745740598197,29.0604214881207
235,1794-10-01,27.4366553007333,27.082792019310798
236,1795-02-06,26.7555285974766,26.571956602994103
237,1795-04-20,27.2780086068203,26.8679500332512
238,1795-07-02,27.2296909493996,27.6009548858427
239,1795-09-13,27.518687280090298,27.1962655034754
240,1795-11-25,27.1835278674046,27.6014838849328
241,1796-03-02,26.2678071898022,27.9073084363061
242,1796-07-02,27.842048982042797,28.1004263003293
243,1796-10-31,27.590611507919103,27.370213788249
244,1797-04-02,26.764640185440303,27.2810790927911
245,1797-10-01,26.7362959285052,27.2184905614364
246,1798-04-02,26.574654424359302,27.1997615401079
247,1798-10-01,27.3120565320235,29.1562421145411
248,1799-04-02,26.584315714767104,28.4374756616953
249,1799-10-01,26.9280973513855,28.5622887023781
250,1800-03-02,26.7135274515621,28.068255915149496
251,1800-07-02,27.3977051686649,27.3708681827291
252,1800-11-01,27.8185808210577,28.490289320195398
253,1801-03-02,27.392765045424103,28.598504557741197
254,1801-07-02,27.766000039820398,27.9814990576707
255,1801-11-01,27.5714006650982,27.248215252248603
256,1802-04-02,27.3605162295177,27.9441960166783
257,1802-10-01,27.742177316388997,28.7704857789216
258,1803-04-02,27.5164543270805,28.8071183750781
259,1803-10-01,27.732502588811197,28.878054690095897
260,1804-03-02,27.484554843358197,28.547097794601
261,1804-07-02,27.4720848237429,28.5725931829075
262,1804-10-31,27.8434014991675,28.643729582992897
263,1805-03-02,27.663345499359398,28.953029543625398
264,1805-07-02,27.761722149605102,28.308123999587696
265,1805-11-01,27.6222388359298,28.924475858010503
266,1806-04-02,27.6077475291039,28.955283740915498
267,1806-10-01,27.3443548491713,28.7788098368217
268,1807-04-02,27.6538744042059,29.2054778259858
269,1807-10-01,27.853408207880896,29.2160061341102
270,1808-07-02,27.4071900532119,28.5724348368289
271,1809-07-02,27.495748843547602,28.9047508086979
272,1810-04-02,27.9609736941653,28.564467521174198
273,1810-10-01,27.726286983854,28.4156976176423
274,1811-04-02,27.158272283183603,27.9110580935184
275,1811-10-01,26.9878940152064,28.2060899964613
276,1812-04-01,27.2591248558537,27.98579579067
277,1812-10-01,26.820538343734302,28.368057188097602
278,1813-04-02,26.9855802049859,28.8946322191825
279,1813-10-01,27.2061727687399,28.629970499931897
280,1814-04-02,27.4310394602927,28.899249284848498
281,1814-10-01,27.442525239837302,28.6666986869697
282,1815-01-31,27.4639467435653,28.4713923017661
283,1815-04-02,27.897605953094697,28.8485683954636
284,1815-06-02,27.789631947863697,28.4731648471072
285,1815-08-01,27.856308022480196,28.8042269949444
286,1815-10-01,27.5954246128257,28.0969725490064
287,1815-12-01,26.9799380511992,27.9046079829285
288,1816-07-02,27.4239220837076,28.861751172519003
289,1817-07-02,27.247793012273103,29.1821635593948
290,1818-04-02,27.592044637424003,28.945284827317902
291,1818-10-01,27.4389212750855,28.3971962970402
292,1819-03-02,27.285658848428398,27.9555500338762
293,1819-07-02,27.391247732063498,28.255728402554997
294,1819-11-01,27.444786896402302,28.1697281654179
295,1820-04-01,26.7053185721439,27.790403782543898
296,1820-10-01,27.1997883180865,28.6499791169232
297,1821-04-02,27.430359628291804,28.9366038105266
298,1821-10-01,26.917394418140503,28.353434906856698
299,1822-07-02,27.1040604387966,27.924351310948
300,1823-04-02,26.5983624099297,28.208435776541098
301,1823-10-01,26.9344696273275,28.446905436532003
302,1824-07-02,27.515424749152498,28.915817523418497
303,1825-07-02,26.9555566264014,28.3061232608358
304,1828-02-15,26.220215483207603,24.6363395103544
305,1828-05-17,25.869857157849303,24.548481837118896
306,1828-08-16,25.002979371391802,24.492228182961398
307,1828-11-16,25.7863240474478,24.2718197291813
308,1829-02-06,24.9139998717312,23.8917354135637
309,1829-04-20,25.015715274345396,24.4305513844041
310,1829-07-02,24.5973456836098,23.8378107236943
311,1829-09-13,24.5709577967694,23.1861929751285
312,1829-11-25,24.805259379137997,23.6715816766795
313,1830-02-15,25.139263126154102,24.5576791840349
314,1830-05-17,24.774632286651602,24.3117516086802
315,1830-08-17,24.885283531773,24.6908556214516
316,1830-11-16,24.790863246624497,24.0368981322017
317,1831-03-02,25.6563021232586,26.2901629310183
318,1831-07-02,25.7700728961546,25.8925298888271
319,1831-11-01,25.898166642818605,26.089398936254803
320,1832-04-01,25.468326081827,25.6937645712329
321,1832-10-01,25.8796123684546,25.543205120005698
322,1833-02-06,25.755625561586598,25.9757795115973
323,1833-04-20,25.695512914752,25.590148314998604
324,1833-07-02,25.6278567554996,24.954361830752802
325,1833-09-13,25.6482700013306,25.3453075538187
326,1833-11-25,25.304908246401897,25.933036468597198
327,1834-01-21,25.292758788685003,25.5272551815502
328,1834-03-02,25.0358003074193,25.028892966378603
329,1834-04-12,24.853991168716803,24.9505787405024
330,1834-05-22,25.920885271876802,25.7112892852891
331,1834-07-02,25.641207438987102,25.4192694217588
332,1834-08-12,25.943992409914603,25.205482811308602
333,1834-09-21,26.098297432158297,25.0788806245228
334,1834-11-01,25.683569497530797,22.7687870278576
335,1834-12-11,25.9226002895361,24.902477450548602
336,1835-01-14,25.1820152061239,24.800564945242353
337,1835-02-09,25.440134119179202,25.3265930571277
338,1835-03-07,25.8087456133724,25.185607264060195
339,1835-04-02,25.7058483434169,24.529188850215203
340,1835-04-28,25.7989677505693,24.6147318051196
341,1835-05-24,25.834239926398897,23.8478730802067
342,1835-06-19,26.2060890806457,25.0075061561029
343,1835-07-15,26.447015228593397,25.4685891038203
344,1835-08-10,25.4942863888939,24.031076430760102
345,1835-09-05,24.9652710236738,23.909576689491896
346,1835-10-01,25.0772512819068,24.7231733509324
347,1835-10-27,24.5932496325494,23.9181524699856
348,1835-11-22,24.7720864202562,24.1829510627949
349,1835-12-18,24.6767671118466,24.1486742946104
350,1836-02-15,24.3856321825046,24.6176405128154
351,1836-05-17,25.002367230497498,25.193132978860397
352,1836-08-16,24.902480740505702,24.284907655383503
353,1836-11-16,25.102251046300303,25.377717107870804
354,1837-01-14,24.5660035493501,24.8260958422236
355,1837-02-09,25.024499184444103,24.779960275292
356,1837-03-07,25.607737342142,25.7816875254785
357,1837-04-02,25.4913943620783,25.0977456925129
358,1837-04-28,25.324308344140896,24.620803475307802
359,1837-05-24,25.2832520308213,24.439881081792198
360,1837-06-19,25.379036822311697,24.412360006495103
361,1837-07-15,25.418298184416,24.911711545300303
362,1837-08-10,25.40686131880585,25.017779366489947
363,1837-09-05,25.358377995031802,24.495707326657
364,1837-10-01,25.188805371065897,24.8731620047576
365,1837-10-27,25.0066315233401,24.9936653884773
366,1837-11-22,25.275435151416097,25.34465263885525
367,1837-12-18,25.3345854056264,25.1981687746835
368,1838-07-02,25.163571935585566,25.89389285057003
369,1839-03-02,25.105387931602603,25.1903151090838
370,1839-07-02,25.2546843790636,25.6690301671218
371,1839-11-01,25.261352589112395,25.783768999881
372,1840-04-01,25.4611347468053,25.400224253917
373,1840-10-01,25.395350446599302,25.9053136101121
374,1841-02-06,25.7196088553409,25.8943690167481
375,1841-04-20,25.4580358712639,25.664946073834
376,1841-07-02,25.2030733736937,25.3551468646185
377,1841-09-13,25.487591782161,25.816369414741203
378,1841-11-25,25.446165465496303,25.620221302211498
379,1842-02-15,25.276030719008304,24.943128349749
380,1842-05-17,25.270507136342395,25.5307303059412
381,1842-08-17,25.046374056051196,24.6802293179012
382,1842-11-16,25.3702067415376,25.3530527955932
383,1843-02-15,25.569938295222897,26.214565086076398
384,1843-05-17,25.4495827338845,25.414454438442
385,1843-08-17,25.4917178002462,25.4161649262008
386,1843-11-16,25.686441610986947,25.4763985579635
387,1844-02-15,25.445304670834304,25.4531333361598
388,1844-05-17,25.4346798687657,26.1715177326403
389,1844-08-16,25.44224768890105,26.13374312884815
390,1844-11-16,25.708643880588497,26.483182539689803
391,1845-03-02,25.517319128249802,26.438144482669397
392,1845-07-02,25.4361834493151,26.3501491881476
393,1845-11-01,25.585043961197698,25.873846630995462
394,1846-01-27,25.389230793088103,26.019854581553698
395,1846-03-20,25.2990386586805,25.782917252681397
396,1846-05-11,25.3448543034727,25.723880880149697
397,1846-07-02,25.4676403391559,25.783131847493802
398,1846-08-23,25.470100233473246,25.813616657521848
399,1846-10-14,25.1289938771472,25.569029860944
400,1846-12-05,25.0312129871635,25.0041802746846
401,1847-03-02,24.9066657756956,25.6890690762749
402,1847-07-02,25.553535209869,26.5673744586805
403,1847-11-01,25.410896197095102,25.6867505048941
404,1848-01-31,25.4763840597758,25.599657225212997
405,1848-04-01,25.295973076380502,25.351111300201897
406,1848-06-01,25.2754803262173,25.317716964875803
407,1848-08-01,25.223919148302002,25.1036599297717
408,1848-10-01,25.1724499266155,25.454453025380396
409,1848-12-01,25.03013555994425,25.22849832871125
410,1919-02-15,27.1015404241995,29.272981773028103
411,1919-05-17,27.727870942630002,29.785948860489803
412,1956-07-02,26.509510335856902,26.2805186166715
413,1957-03-02,25.363413530642653,25.5919535992258
414,1957-07-02,25.278316166581604,25.4297373023572
415,1957-11-01,25.9088221123503,27.3023160561298
416,1958-02-15,25.58536034858855,26.72095136061905
417,1958-05-17,25.5523357256193,26.314117688576196
418,1958-08-17,25.5956614339381,26.4761954910459
419,1958-11-16,24.904975441514,25.164857741715398
420,1959-01-31,25.677329891244604,26.387239510098702
421,1959-04-02,25.579082700613103,26.7634997135951
422,1959-06-02,26.0067682282432,27.2507819441527
423,1959-08-01,25.234584188101,25.628063138127498
424,1959-10-01,26.1214981653203,25.997649626846105
425,1959-12-01,26.0517244944484,25.6783161586842
426,1960-03-02,25.810728749333897,24.6813253018544
427,1960-07-02,26.6008305551234,26.8611432676343
428,1960-10-31,26.640669150711602,26.181173999284397
429,1961-02-15,26.691646584309,26.236686135933798
430,1961-05-17,26.700443379186098,26.665532496357052
431,1961-08-17,26.71924693281175,26.3235060552026
432,1961-11-16,27.070632614834103,26.533844809141502
433,1962-01-31,26.96311553491055,26.03533424997925
434,1962-04-02,26.831020146231452,26.019031953066097
435,1962-06-02,26.7279175296562,25.526591904622197
436,1962-08-01,26.6059547454598,25.683108342287397
437,1962-10-01,26.807694245543605,26.4305532068319
438,1962-12-01,26.7698141336867,25.8011013507934
439,1963-04-02,27.0764629082832,26.956450597950695
440,1963-10-01,27.0496700339428,26.3066141608393
441,1964-02-06,26.9828116193612,27.1596722363964
442,1964-04-19,26.954390274455104,26.5645226131214
443,1964-07-02,26.9849111110938,26.6271268185188
444,1964-09-13,27.0668823932164,27.238527753262503
445,1964-11-25,26.942141795921803,26.5497740406996
446,1965-02-15,26.678816335602836,27.150776371669433
447,1965-05-17,26.5615224664705,26.4275914467743
448,1965-08-17,26.506038221117002,26.145687725599952
449,1965-11-16,26.550477289022666,26.672576714633664
450,1966-04-02,26.1230369505999,26.378440734105702
451,1966-10-01,26.2434556140311,27.049082232631196
452,1967-02-15,26.584552529851603,26.8930086753622
453,1967-05-17,26.6312075516189,26.7089330786143
454,1967-08-17,26.636579035524,26.6298682734073
455,1967-11-16,26.5184036049429,25.940931488913698
456,1968-03-02,26.2689848207869,26.107613732128
457,1968-07-02,26.435538911054802,26.247849285306803
458,1968-10-31,26.4282845098984,26.4284517060331
459,1969-03-02,26.011195150971197,26.4101656644442
460,1969-07-02,25.8724360407074,26.335529987616
461,1969-11-01,25.1980489569238,25.865822738042397
462,1970-04-02,25.0112861636028,25.969352434870896
463,1970-10-01,25.078107109317198,25.932663263873803
464,1971-07-02,25.386871901978303,25.376506769949604
465,1972-07-02,25.574306303335298,26.3698303374248
466,1973-04-02,25.364544113211604,25.543482378626198
467,1973-10-01,25.6431786323504,26.278708124295
468,1974-04-02,25.784353829893103,25.828530875300103
469,1974-10-01,24.957902533077696,25.133480846388803
470,1975-04-02,24.479694346737105,24.764214560601
471,1975-10-01,24.894572854405798,25.3071538476854
472,1976-03-02,24.8778083375732,25.4980113852495
473,1976-07-02,24.819375317224303,25.523459121037
474,1976-10-31,24.838011873148602,26.2568297377827
475,1977-04-02,25.111987120909,28.771916453705
476,1977-10-01,24.8671850290166,26.1659994240098
477,1978-04-02,25.0995615409183,26.5238452321915
478,1978-10-01,24.972594602799102,26.3545681240687
479,1979-07-02,25.4386478052841,25.499589673521104
480,1980-07-02,25.3863235664789,26.900076951776402
481,1981-03-02,25.2095544481865,26.052864845810298
482,1981-07-02,25.050755693675498,26.099431316153197
483,1981-11-01,25.3472698879251,27.0969203595497
484,1982-07-02,25.4987146998876,26.624167573722502
485,1983-03-02,25.523664009653896,26.0655996714075
486,1983-07-02,25.3602959892273,24.9448073358678
487,1983-11-01,24.963910132295602,25.751527682905802
488,1984-07-02,24.7585683255799,25.8357756009959
489,1985-04-02,25.1122688054996,26.1739478888663
490,1985-10-01,24.9294266711129,25.8438005979805
491,1986-07-02,25.064601749991198,26.584706025907696
492,1987-04-02,25.0198524331697,26.299475769157098
493,1987-10-01,25.0225151431882,26.691206194727748
494,1988-07-02,24.91008124820435,26.1179953033983
495,1989-03-02,24.9236060384922,26.460206626259698
496,1989-07-02,25.193735841758247,26.720023105669803
497,1989-11-01,24.977630381673134,27.1480050433302
498,1990-03-02,24.8846897997357,27.2321100109934
499,1990-07-02,24.9727761819235,26.9127675158795
500,1990-11-01,25.240333063481003,27.1445955470266
501,1991-07-02,25.05873564091585,26.845161856968502
502,1992-03-02,25.541023500047803,27.399646298424898
503,1992-07-02,25.4160981519633,27.468305242219895
504,1992-10-31,25.61240108080885,28.0530190961422
505,1993-07-02,26.103542022136,27.2288625963092
506,1994-04-02,25.906291184574,26.637791140244698
507,1994-10-01,25.6713821484521,26.0258441397209
508,1995-07-02,25.799035991122604,26.759893208085103
